…
   ================================================================================
   ESTADO: AL - TOTAL DE ESTAÇÕES CADASTRADAS: 218
   TOTAL DE ESTAÇÕES COM POSSIBILIDADE DE DADOS NO PERÍODO: 203
   ================================================================================

**Consolidated execution report**

At the end of the full run, the system generates and saves a tibble-format summary covering all 27 states, with columns for total stations, successful extractions, data absences, technical failures, elapsed time, and output file paths.

.. code-block:: text

   ================================================================
   Download finalizado.
   Resumo da execução por estado:
   # A tibble: 27 × 9
      Estado Total_Estacoes Sucesso Sem_Dados Falha Tempo_min Arquivo_Dados
      <chr>          <int>   <int>     <int> <int>     <dbl> <chr>
    1 AC               76      41        35     0      12.8  /opt/storage/raw/wcl...
    2 AL              203      65       138     0      31.4  /opt/storage/raw/wcl...
    3 AM              297     215        82     0      59.1  /opt/storage/raw/wcl...
    4 AP               69      29        40     0      11.3  /opt/storage/raw/wcl...
    5 BA             1698     715       983     0     272.   /opt/storage/raw/wcl...
    6 CE             1295     960       335     0     237.   /opt/storage/raw/wcl...
    7 DF              129      78        51     0      21.6  /opt/storage/raw/wcl...
    8 ES              389     136       253     0      63.8  /opt/storage/raw/wcl...
    9 GO              465     213       252     0      80.3  /opt/storage/raw/wcl...
   10 MA              381     162       219     0      64.7  /opt/storage/raw/wcl...
   # ℹ 17 more rows
   # ℹ 2 more variables: Arquivo_Erros <chr>, Arquivo_Sem_Dados <chr>
…
